<svg xmlns="http://www.w3.org/2000/svg" width="24.448" height="24.449" viewBox="0 0 24.448 24.449">
  <g id="Сгруппировать_3" data-name="Сгруппировать 3" transform="translate(-1211.876 -854.911)">
    <line id="Линия_1" data-name="Линия 1" x1="23.033" y1="23.033" transform="translate(1212.583 855.619)" fill="none" stroke="#fff" stroke-linecap="round" stroke-miterlimit="10" stroke-width="1"/>
    <line id="Линия_2" data-name="Линия 2" y1="23.035" x2="23.034" transform="translate(1212.583 855.618)" fill="none" stroke="#fff" stroke-linecap="round" stroke-miterlimit="10" stroke-width="1"/>
  </g>
</svg>
