<svg xmlns="http://www.w3.org/2000/svg" width="20.854" height="23.634" viewBox="0 0 20.854 23.634">
  <g id="Group_7" transform="translate(-1250.184 -1248.251)">
    <path id="Path_6" d="M1259.595,1266.324a1.389,1.389,0,0,0,2.032,0l6.952-6.7a1.39,1.39,0,0,0-1.017-2.338h-3.475v-7.647a1.391,1.391,0,0,0-1.391-1.39h-4.17a1.391,1.391,0,0,0-1.391,1.39v7.647h-3.475a1.39,1.39,0,0,0-1.016,2.338Z" fill="#2c2c2c"/>
    <path id="Path_7" d="M1269.648,1263.544a1.391,1.391,0,0,0-1.391,1.39v4.171h-15.292v-4.171a1.391,1.391,0,0,0-2.781,0v5.561a1.39,1.39,0,0,0,1.39,1.39h18.074a1.39,1.39,0,0,0,1.39-1.39v-5.561A1.39,1.39,0,0,0,1269.648,1263.544Z" fill="#2c2c2c"/>
  </g>
</svg>
